{
  "page": 1,
  "per_page": 10,
  "total": 20,
  "total_pages": 2,
  "data": [
    {
      "Title": "Batman Begins",
      "Year": "2005",
      "imdbID": "tt0372784"
    },
    {
      "Title": "Batman v Superman: Dawn of Justice",
      "Year": "2016",
      "imdbID": "tt2975590"
    }
  ]
} 